75.106.181.144 - - [11/Nov/2017:12:05:47 +0300] "GET /list HTTP/1.0" 200 4959 "http://bernard.org/wp-content/category/" "Mozilla/5.0 (Windows NT 4.0; lb-LU; rv:1.9.1.20) Gecko/2013-08-18 19:46:16 Firefox/3.6.9"
198.10.21.238 - - [11/Nov/2017:12:09:00 +0300] "GET /wp-content HTTP/1.0" 200 4999 "http://www.bowman-kennedy.com/" "Mozilla/5.0 (X11; Linux i686; rv:1.9.5.20) Gecko/2016-03-31 20:20:14 Firefox/3.6.4"
216.8.45.165 - - [11/Nov/2017:12:10:21 +0300] "PUT /apps/cart.jsp?appID=6073 HTTP/1.0" 404 4964 "https://www.bryant-pace.biz/app/categories/homepage.asp" "Mozilla/5.0 (Windows NT 5.2; or-IN; rv:1.9.0.20) Gecko/2015-02-03 10:58:40 Firefox/3.8"
182.41.148.110 - - [11/Nov/2017:12:12:12 +0300] "POST /explore HTTP/1.0" 200 5021 "https://www.walker.com/about/" "Mozilla/5.0 (Windows; U; Windows NT 6.1) AppleWebKit/535.30.6 (KHTML, like Gecko) Version/5.0.1 Safari/535.30.6"
9.238.152.188 - - [11/Nov/2017:12:17:07 +0300] "PUT /apps/cart.jsp?appID=4641 HTTP/1.0" 200 4979 "http://johnson-reese.net/tags/tags/about.php" "Mozilla/5.0 (X11; Linux i686) AppleWebKit/5312 (KHTML, like Gecko) Chrome/13.0.877.0 Safari/5312"
79.152.32.210 - - [11/Nov/2017:12:19:25 +0300] "GET /list HTTP/1.0" 200 5074 "http://www.martinez.com/index.php" "Mozilla/5.0 (compatible; MSIE 8.0; Windows 98; Win 9x 4.90; Trident/5.1)"
24.218.219.236 - - [11/Nov/2017:12:20:17 +0300] "GET /posts/posts/explore HTTP/1.0" 200 5001 "http://kelley.com/tags/tag/explore/home.asp" "Mozilla/5.0 (Windows NT 5.01) AppleWebKit/5350 (KHTML, like Gecko) Chrome/13.0.825.0 Safari/5350"
19.155.102.73 - - [11/Nov/2017:12:22:22 +0300] "GET /list HTTP/1.0" 200 5022 "http://meza.info/homepage.html" "Mozilla/5.0 (Macintosh; PPC Mac OS X 10_6_8) AppleWebKit/5350 (KHTML, like Gecko) Chrome/13.0.886.0 Safari/5350"
200.107.130.177 - - [11/Nov/2017:12:26:35 +0300] "GET /search/tag/list HTTP/1.0" 200 4858 "http://www.george-jones.info/tag/tags/blog/faq.html" "Mozilla/5.0 (iPod; U; CPU iPhone OS 4_0 like Mac OS X; fi-FI) AppleWebKit/531.22.5 (KHTML, like Gecko) Version/4.0.5 Mobile/8B116 Safari/6531.22.5"
187.96.66.177 - - [11/Nov/2017:12:27:30 +0300] "PUT /list HTTP/1.0" 200 5089 "http://knight.org/tag/explore/main/register.php" "Mozilla/5.0 (Macintosh; U; Intel Mac OS X 10_6_5; rv:1.9.3.20) Gecko/2016-02-15 13:36:51 Firefox/3.8"
140.13.117.194 - - [11/Nov/2017:12:28:25 +0300] "GET /search/tag/list HTTP/1.0" 200 4986 "http://www.murphy-harding.net/post/" "Mozilla/5.0 (X11; Linux x86_64; rv:1.9.6.20) Gecko/2016-06-08 23:27:57 Firefox/7.0"
156.120.18.189 - - [11/Nov/2017:12:31:41 +0300] "GET /posts/posts/explore HTTP/1.0" 200 4982 "http://hall.com/wp-content/register.html" "Mozilla/5.0 (X11; Linux x86_64) AppleWebKit/5352 (KHTML, like Gecko) Chrome/14.0.850.0 Safari/5352"
238.189.202.2 - - [11/Nov/2017:12:35:39 +0300] "PUT /wp-admin HTTP/1.0" 200 5011 "https://www.scott-hess.biz/index/" "Mozilla/5.0 (Windows CE; bs-BA; rv:1.9.2.20) Gecko/2016-08-27 09:15:56 Firefox/3.8"
196.216.144.5 - - [11/Nov/2017:12:37:06 +0300] "GET /explore HTTP/1.0" 404 4956 "http://dunn-lewis.com/category.jsp" "Mozilla/5.0 (Windows NT 5.1; tr-TR; rv:1.9.2.20) Gecko/2015-12-06 14:10:25 Firefox/14.0"
236.236.126.226 - - [11/Nov/2017:12:40:00 +0300] "PUT /search/tag/list HTTP/1.0" 200 4950 "https://johnson.com/home/" "Mozilla/5.0 (X11; Linux i686; rv:1.9.7.20) Gecko/2011-10-13 22:25:22 Firefox/3.6.4"
77.241.20.119 - - [11/Nov/2017:12:42:16 +0300] "GET /search/tag/list HTTP/1.0" 200 4942 "https://www.stout.com/category/categories/homepage/" "Mozilla/5.0 (Windows NT 4.0) AppleWebKit/5330 (KHTML, like Gecko) Chrome/13.0.851.0 Safari/5330"
77.228.123.243 - - [11/Nov/2017:12:43:24 +0300] "GET /apps/cart.jsp?appID=6287 HTTP/1.0" 200 4965 "https://www.cox-martinez.org/" "Mozilla/5.0 (Macintosh; U; Intel Mac OS X 10_5_7; rv:1.9.5.20) Gecko/2012-04-16 01:26:17 Firefox/3.6.15"
207.192.86.165 - - [11/Nov/2017:12:46:36 +0300] "DELETE /search/tag/list HTTP/1.0" 200 4981 "https://barnes-gardner.com/faq/" "Mozilla/5.0 (X11; Linux i686) AppleWebKit/5360 (KHTML, like Gecko) Chrome/14.0.842.0 Safari/5360"
121.12.23.212 - - [11/Nov/2017:12:50:13 +0300] "DELETE /list HTTP/1.0" 200 4991 "http://barnes-warren.net/" "Mozilla/5.0 (Macintosh; Intel Mac OS X 10_6_8) AppleWebKit/5362 (KHTML, like Gecko) Chrome/13.0.837.0 Safari/5362"
174.83.51.43 - - [11/Nov/2017:12:53:01 +0300] "GET /wp-admin HTTP/1.0" 200 4986 "https://dalton.biz/privacy.htm" "Mozilla/5.0 (Windows 98; Win 9x 4.90; da-DK; rv:1.9.2.20) Gecko/2015-02-07 16:39:07 Firefox/3.8"
33.204.68.83 - - [11/Nov/2017:12:57:21 +0300] "GET /search/tag/list HTTP/1.0" 200 5047 "http://www.harding.info/about/" "Mozilla/5.0 (Windows NT 6.0) AppleWebKit/5340 (KHTML, like Gecko) Chrome/13.0.856.0 Safari/5340"
156.72.11.222 - - [11/Nov/2017:13:01:28 +0300] "DELETE /apps/cart.jsp?appID=8350 HTTP/1.0" 200 5037 "https://www.ferrell.com/search.html" "Opera/9.33.(Windows NT 5.1; ru-UA) Presto/2.9.162 Version/11.00"
164.241.175.164 - - [11/Nov/2017:13:05:36 +0300] "GET /posts/posts/explore HTTP/1.0" 200 4923 "https://www.petty-chapman.biz/post/" "Opera/9.34.(Windows 98; Win 9x 4.90; eo-US) Presto/2.9.182 Version/12.00"
232.80.111.190 - - [11/Nov/2017:13:07:13 +0300] "POST /list HTTP/1.0" 200 5007 "http://www.stevenson.com/search/" "Mozilla/5.0 (X11; Linux i686; rv:1.9.5.20) Gecko/2013-08-02 18:54:13 Firefox/4.0"
181.31.17.208 - - [11/Nov/2017:13:08:19 +0300] "POST /list HTTP/1.0" 200 4975 "http://taylor.com/explore/blog/app/post/" "Mozilla/5.0 (Windows NT 5.2; aa-DJ; rv:1.9.0.20) Gecko/2017-05-07 21:08:34 Firefox/6.0"
229.13.159.19 - - [11/Nov/2017:13:09:22 +0300] "GET /app/main/posts HTTP/1.0" 200 4973 "http://www.rodriguez-oneill.com/category.htm" "Mozilla/5.0 (Macintosh; PPC Mac OS X 10_8_8) AppleWebKit/5310 (KHTML, like Gecko) Chrome/14.0.848.0 Safari/5310"
240.71.192.73 - - [11/Nov/2017:13:12:23 +0300] "GET /apps/cart.jsp?appID=6813 HTTP/1.0" 200 4986 "https://www.moore.org/author.php" "Mozilla/5.0 (Macintosh; U; PPC Mac OS X 10_8_2) AppleWebKit/5322 (KHTML, like Gecko) Chrome/15.0.899.0 Safari/5322"
12.125.119.224 - - [11/Nov/2017:13:17:01 +0300] "GET /apps/cart.jsp?appID=4678 HTTP/1.0" 500 4939 "http://cohen-burgess.net/explore/tag/app/faq/" "Mozilla/5.0 (X11; Linux x86_64) AppleWebKit/5361 (KHTML, like Gecko) Chrome/14.0.899.0 Safari/5361"
190.215.144.174 - - [11/Nov/2017:13:20:20 +0300] "GET /search/tag/list HTTP/1.0" 200 5032 "http://www.sullivan.org/categories/posts/terms/" "Mozilla/5.0 (X11; Linux x86_64; rv:1.9.6.20) Gecko/2011-11-10 04:46:26 Firefox/15.0"
252.230.13.28 - - [11/Nov/2017:13:21:58 +0300] "GET /search/tag/list HTTP/1.0" 200 4980 "http://hobbs-good.org/blog/main/main/author.html" "Mozilla/5.0 (Macintosh; Intel Mac OS X 10_6_8; rv:1.9.6.20) Gecko/2014-01-12 17:01:31 Firefox/3.8"
225.32.47.199 - - [11/Nov/2017:13:24:05 +0300] "PUT /app/main/posts HTTP/1.0" 200 4999 "https://www.sullivan.com/category.htm" "Mozilla/5.0 (X11; Linux i686) AppleWebKit/5361 (KHTML, like Gecko) Chrome/13.0.875.0 Safari/5361"
151.170.81.189 - - [11/Nov/2017:13:28:36 +0300] "GET /search/tag/list HTTP/1.0" 301 5060 "https://allen-thompson.com/explore/faq.jsp" "Mozilla/5.0 (Macintosh; U; PPC Mac OS X 10_7_5; rv:1.9.3.20) Gecko/2013-03-01 17:08:47 Firefox/3.8"
60.187.247.20 - - [11/Nov/2017:13:31:35 +0300] "POST /explore HTTP/1.0" 200 5196 "https://alexander.org/index.html" "Mozilla/5.0 (Windows NT 6.1) AppleWebKit/5342 (KHTML, like Gecko) Chrome/13.0.834.0 Safari/5342"
108.128.69.206 - - [11/Nov/2017:13:35:39 +0300] "GET /app/main/posts HTTP/1.0" 200 5045 "https://taylor-ellis.com/home.html" "Mozilla/5.0 (X11; Linux i686; rv:1.9.7.20) Gecko/2014-11-08 11:46:27 Firefox/3.8"
227.38.156.228 - - [11/Nov/2017:13:38:41 +0300] "GET /posts/posts/explore HTTP/1.0" 200 5055 "http://ward-kennedy.com/tag/tag/index/" "Opera/9.61.(Windows 98; unm-US) Presto/2.9.171 Version/12.00"
239.231.187.134 - - [11/Nov/2017:13:43:17 +0300] "GET /wp-admin HTTP/1.0" 200 4960 "http://www.vargas.com/explore/category/main/faq.htm" "Mozilla/5.0 (Windows 95; bho-IN; rv:1.9.0.20) Gecko/2017-08-10 12:56:44 Firefox/3.6.4"
89.201.49.198 - - [11/Nov/2017:13:46:47 +0300] "GET /search/tag/list HTTP/1.0" 200 5031 "https://kelly.com/login.htm" "Mozilla/5.0 (Windows 98; Win 9x 4.90; mn-MN; rv:1.9.0.20) Gecko/2011-06-18 22:14:29 Firefox/3.6.13"
142.52.136.183 - - [11/Nov/2017:13:49:17 +0300] "GET /search/tag/list HTTP/1.0" 404 4905 "http://www.thompson.com/" "Mozilla/5.0 (X11; Linux i686; rv:1.9.5.20) Gecko/2017-01-12 06:49:44 Firefox/5.0"
165.74.93.195 - - [11/Nov/2017:13:52:03 +0300] "DELETE /apps/cart.jsp?appID=9956 HTTP/1.0" 200 5006 "http://www.hernandez.com/login/" "Mozilla/5.0 (Macintosh; PPC Mac OS X 10_7_8) AppleWebKit/5352 (KHTML, like Gecko) Chrome/15.0.886.0 Safari/5352"
192.75.179.138 - - [11/Nov/2017:13:54:05 +0300] "PUT /search/tag/list HTTP/1.0" 301 4925 "https://www.duncan.com/register.htm" "Mozilla/5.0 (Macintosh; U; PPC Mac OS X 10_8_7; rv:1.9.6.20) Gecko/2016-09-03 00:48:34 Firefox/3.6.18"
12.86.231.216 - - [11/Nov/2017:13:56:31 +0300] "GET /app/main/posts HTTP/1.0" 200 4995 "http://www.lester-johnson.biz/app/category/tag/author.html" "Mozilla/5.0 (Windows 95; ne-NP; rv:1.9.0.20) Gecko/2015-03-14 20:42:01 Firefox/15.0"
234.251.31.237 - - [11/Nov/2017:13:59:26 +0300] "GET /wp-content HTTP/1.0" 200 4990 "http://www.clark.com/list/list/about.html" "Mozilla/5.0 (Macintosh; U; PPC Mac OS X 10_5_9 rv:5.0; tn-ZA) AppleWebKit/532.18.7 (KHTML, like Gecko) Version/4.0 Safari/532.18.7"
40.35.67.197 - - [11/Nov/2017:14:02:48 +0300] "PUT /search/tag/list HTTP/1.0" 200 5055 "http://rush-edwards.info/index/" "Mozilla/5.0 (X11; Linux x86_64; rv:1.9.7.20) Gecko/2012-08-28 11:18:30 Firefox/11.0"
144.158.47.42 - - [11/Nov/2017:14:04:22 +0300] "POST /list HTTP/1.0" 200 4953 "http://brown-rodriguez.net/about.htm" "Mozilla/5.0 (Macintosh; Intel Mac OS X 10_5_8) AppleWebKit/5310 (KHTML, like Gecko) Chrome/13.0.877.0 Safari/5310"
95.108.130.35 - - [11/Nov/2017:14:07:51 +0300] "PUT /list HTTP/1.0" 200 5087 "http://www.pollard.com/tag/tags/login/" "Mozilla/5.0 (Windows 95; et-EE; rv:1.9.0.20) Gecko/2015-01-31 05:44:54 Firefox/11.0"
172.178.193.87 - - [11/Nov/2017:14:08:43 +0300] "GET /apps/cart.jsp?appID=7434 HTTP/1.0" 200 4914 "https://www.jackson-mathews.com/categories/categories/post/" "Mozilla/5.0 (Macintosh; PPC Mac OS X 10_8_6 rv:6.0; zh-CN) AppleWebKit/533.14.2 (KHTML, like Gecko) Version/5.0.3 Safari/533.14.2"
83.79.120.67 - - [11/Nov/2017:14:11:56 +0300] "POST /explore HTTP/1.0" 200 4986 "https://randall-moore.biz/app/main/" "Mozilla/5.0 (X11; Linux x86_64; rv:1.9.7.20) Gecko/2012-06-03 23:34:02 Firefox/3.6.1"
40.40.173.219 - - [11/Nov/2017:14:12:49 +0300] "GET /apps/cart.jsp?appID=4564 HTTP/1.0" 200 4949 "http://www.herrera.biz/posts/tags/blog/category.html" "Mozilla/5.0 (Macintosh; U; Intel Mac OS X 10_6_8; rv:1.9.4.20) Gecko/2016-01-14 18:21:25 Firefox/5.0"
119.79.176.125 - - [11/Nov/2017:14:15:51 +0300] "GET /wp-admin HTTP/1.0" 200 4983 "http://curry.com/search/category/tags/main.htm" "Mozilla/5.0 (Macintosh; Intel Mac OS X 10_5_0; rv:1.9.3.20) Gecko/2017-01-14 06:30:50 Firefox/3.6.13"
108.115.94.55 - - [11/Nov/2017:14:18:33 +0300] "GET /wp-admin HTTP/1.0" 200 4898 "https://www.garcia.com/list/search/faq/" "Mozilla/5.0 (compatible; MSIE 6.0; Windows NT 6.2; Trident/4.0)"
169.150.31.55 - - [11/Nov/2017:14:21:39 +0300] "GET /list HTTP/1.0" 200 5094 "https://www.king.com/privacy/" "Mozilla/5.0 (X11; Linux x86_64; rv:1.9.7.20) Gecko/2013-09-19 01:25:09 Firefox/3.6.9"
43.47.127.248 - - [11/Nov/2017:14:22:36 +0300] "GET /app/main/posts HTTP/1.0" 200 4913 "http://www.lopez-alvarez.info/categories/index.php" "Mozilla/5.0 (Windows 98; Win 9x 4.90; wal-ET; rv:1.9.1.20) Gecko/2010-03-02 17:19:14 Firefox/3.8"
152.156.177.181 - - [11/Nov/2017:14:25:42 +0300] "DELETE /wp-admin HTTP/1.0" 200 4899 "https://peterson.com/post.php" "Mozilla/5.0 (Macintosh; Intel Mac OS X 10_8_9 rv:6.0; nb-NO) AppleWebKit/534.40.7 (KHTML, like Gecko) Version/4.0 Safari/534.40.7"
10.66.176.188 - - [11/Nov/2017:14:27:43 +0300] "GET /apps/cart.jsp?appID=6809 HTTP/1.0" 200 5040 "http://washington-ellis.com/about.php" "Mozilla/5.0 (X11; Linux x86_64) AppleWebKit/5311 (KHTML, like Gecko) Chrome/14.0.823.0 Safari/5311"
193.64.172.235 - - [11/Nov/2017:14:29:58 +0300] "GET /list HTTP/1.0" 200 5085 "http://www.mathews.biz/main.php" "Mozilla/5.0 (Windows 98; Win 9x 4.90; fy-NL; rv:1.9.2.20) Gecko/2010-02-15 15:59:14 Firefox/3.8"
172.99.43.80 - - [11/Nov/2017:14:32:32 +0300] "PUT /app/main/posts HTTP/1.0" 200 4937 "https://www.gay-mcbride.org/tag/explore/faq.html" "Mozilla/5.0 (Windows NT 4.0) AppleWebKit/5322 (KHTML, like Gecko) Chrome/14.0.877.0 Safari/5322"
28.206.156.71 - - [11/Nov/2017:14:33:58 +0300] "PUT /app/main/posts HTTP/1.0" 200 4943 "http://www.richardson.com/app/about/" "Mozilla/5.0 (Windows 98; Win 9x 4.90; kn-IN; rv:1.9.0.20) Gecko/2013-01-20 07:52:45 Firefox/3.8"
131.74.28.152 - - [11/Nov/2017:14:36:56 +0300] "DELETE /app/main/posts HTTP/1.0" 200 4968 "http://www.taylor-wu.com/blog/blog/search/search.php" "Mozilla/5.0 (X11; Linux x86_64; rv:1.9.6.20) Gecko/2012-07-03 21:21:41 Firefox/14.0"
176.237.44.212 - - [11/Nov/2017:14:38:14 +0300] "GET /search/tag/list HTTP/1.0" 200 4898 "http://www.cameron.com/wp-content/login.htm" "Mozilla/5.0 (Windows NT 6.0; cs-CZ; rv:1.9.0.20) Gecko/2013-01-12 04:43:46 Firefox/8.0"
60.39.224.228 - - [11/Nov/2017:14:41:41 +0300] "DELETE /apps/cart.jsp?appID=5212 HTTP/1.0" 200 4894 "http://jenkins-lam.net/main/about/" "Mozilla/5.0 (X11; Linux i686) AppleWebKit/5350 (KHTML, like Gecko) Chrome/15.0.831.0 Safari/5350"
102.73.100.13 - - [11/Nov/2017:14:45:37 +0300] "GET /wp-content HTTP/1.0" 200 4969 "http://www.walker.com/category/list/main.php" "Mozilla/5.0 (compatible; MSIE 6.0; Windows NT 5.0; Trident/4.0)"
6.241.139.183 - - [11/Nov/2017:14:46:48 +0300] "GET /explore HTTP/1.0" 200 4955 "http://simpson-anderson.net/faq.htm" "Mozilla/5.0 (Windows NT 4.0; ur-IN; rv:1.9.0.20) Gecko/2016-12-06 19:15:50 Firefox/9.0"
48.99.147.132 - - [11/Nov/2017:14:48:44 +0300] "GET /wp-content HTTP/1.0" 200 5032 "http://www.byrd.com/" "Mozilla/5.0 (iPod; U; CPU iPhone OS 3_3 like Mac OS X; en-BW) AppleWebKit/533.29.7 (KHTML, like Gecko) Version/3.0.5 Mobile/8B111 Safari/6533.29.7"
1.168.62.131 - - [11/Nov/2017:14:53:15 +0300] "POST /apps/cart.jsp?appID=3624 HTTP/1.0" 200 5035 "http://www.cruz.biz/" "Mozilla/5.0 (X11; Linux i686; rv:1.9.7.20) Gecko/2012-01-05 00:18:47 Firefox/3.6.3"
73.253.243.88 - - [11/Nov/2017:14:56:35 +0300] "GET /list HTTP/1.0" 200 4985 "https://smith-anderson.biz/" "Mozilla/5.0 (Macintosh; U; Intel Mac OS X 10_7_0; rv:1.9.3.20) Gecko/2016-02-26 07:59:32 Firefox/3.6.16"
102.11.151.88 - - [11/Nov/2017:15:00:56 +0300] "GET /apps/cart.jsp?appID=8688 HTTP/1.0" 200 4987 "https://www.watson.com/main.jsp" "Mozilla/5.0 (Macintosh; U; PPC Mac OS X 10_6_2) AppleWebKit/5340 (KHTML, like Gecko) Chrome/13.0.857.0 Safari/5340"
85.35.122.238 - - [11/Nov/2017:15:02:29 +0300] "GET /explore HTTP/1.0" 200 5027 "https://cruz-mcdonald.com/tags/register.html" "Mozilla/5.0 (Windows NT 5.0; cv-RU; rv:1.9.0.20) Gecko/2013-01-28 20:57:54 Firefox/10.0"
109.236.195.58 - - [11/Nov/2017:15:06:01 +0300] "POST /apps/cart.jsp?appID=5842 HTTP/1.0" 200 4935 "https://www.willis.biz/" "Mozilla/5.0 (iPod; U; CPU iPhone OS 4_0 like Mac OS X; hr-HR) AppleWebKit/532.31.6 (KHTML, like Gecko) Version/3.0.5 Mobile/8B113 Safari/6532.31.6"
222.141.225.87 - - [11/Nov/2017:15:09:31 +0300] "POST /list HTTP/1.0" 200 4986 "https://www.munoz-blake.net/index/" "Mozilla/5.0 (X11; Linux x86_64) AppleWebKit/5330 (KHTML, like Gecko) Chrome/14.0.827.0 Safari/5330"
226.36.56.33 - - [11/Nov/2017:15:10:01 +0300] "PUT /search/tag/list HTTP/1.0" 200 4983 "https://www.jones.org/explore/categories/search/homepage/" "Mozilla/5.0 (iPod; U; CPU iPhone OS 3_2 like Mac OS X; hne-IN) AppleWebKit/532.5.5 (KHTML, like Gecko) Version/3.0.5 Mobile/8B116 Safari/6532.5.5"
192.190.56.49 - - [11/Nov/2017:15:15:00 +0300] "GET /posts/posts/explore HTTP/1.0" 404 4940 "http://tucker.com/login/" "Mozilla/5.0 (Macintosh; Intel Mac OS X 10_6_7; rv:1.9.2.20) Gecko/2016-12-28 11:25:10 Firefox/3.6.7"
208.154.85.17 - - [11/Nov/2017:15:16:19 +0300] "GET /apps/cart.jsp?appID=5981 HTTP/1.0" 200 4972 "http://www.wheeler-vasquez.com/" "Mozilla/5.0 (Macintosh; Intel Mac OS X 10_6_5; rv:1.9.3.20) Gecko/2014-08-30 04:37:46 Firefox/13.0"
58.156.95.252 - - [11/Nov/2017:15:19:09 +0300] "DELETE /apps/cart.jsp?appID=5564 HTTP/1.0" 200 5013 "http://www.cooke-smith.com/about.jsp" "Mozilla/5.0 (X11; Linux x86_64; rv:1.9.6.20) Gecko/2016-04-16 03:05:15 Firefox/3.8"
24.18.18.69 - - [11/Nov/2017:15:21:57 +0300] "GET /apps/cart.jsp?appID=2668 HTTP/1.0" 200 4944 "https://www.perry.net/app/faq/" "Mozilla/5.0 (compatible; MSIE 8.0; Windows CE; Trident/5.1)"
143.9.76.111 - - [11/Nov/2017:15:26:19 +0300] "GET /wp-content HTTP/1.0" 200 5071 "http://www.horn.biz/home.htm" "Mozilla/5.0 (Windows NT 5.1; sc-IT; rv:1.9.0.20) Gecko/2011-07-21 19:40:23 Firefox/7.0"
90.77.191.141 - - [11/Nov/2017:15:30:44 +0300] "GET /list HTTP/1.0" 200 4990 "http://www.graham-whitehead.com/privacy.html" "Mozilla/5.0 (Windows NT 6.2; ne-NP; rv:1.9.2.20) Gecko/2016-02-05 11:47:12 Firefox/3.8"
102.243.154.114 - - [11/Nov/2017:15:32:05 +0300] "GET /wp-content HTTP/1.0" 200 5022 "https://www.greene-williams.org/" "Mozilla/5.0 (X11; Linux x86_64) AppleWebKit/5360 (KHTML, like Gecko) Chrome/13.0.801.0 Safari/5360"
176.73.138.230 - - [11/Nov/2017:15:33:56 +0300] "POST /search/tag/list HTTP/1.0" 200 5011 "http://www.morrison-patterson.com/" "Mozilla/5.0 (Windows NT 6.0; dv-MV; rv:1.9.2.20) Gecko/2010-07-02 20:34:09 Firefox/3.8"
94.85.219.45 - - [11/Nov/2017:15:35:12 +0300] "GET /wp-admin HTTP/1.0" 200 4960 "https://davis.com/" "Opera/8.76.(X11; Linux x86_64; hr-HR) Presto/2.9.183 Version/12.00"
234.207.211.215 - - [11/Nov/2017:15:39:34 +0300] "DELETE /wp-content HTTP/1.0" 200 4929 "https://www.cowan-reed.com/" "Mozilla/5.0 (Windows NT 5.01; af-ZA; rv:1.9.1.20) Gecko/2013-03-29 21:00:52 Firefox/3.6.3"
140.157.184.0 - - [11/Nov/2017:15:41:00 +0300] "GET /app/main/posts HTTP/1.0" 200 5005 "https://www.henderson-moore.com/blog/app/home.asp" "Mozilla/5.0 (Macintosh; PPC Mac OS X 10_5_0 rv:4.0; fr-FR) AppleWebKit/533.29.3 (KHTML, like Gecko) Version/5.1 Safari/533.29.3"
254.61.178.47 - - [11/Nov/2017:15:42:47 +0300] "GET /wp-content HTTP/1.0" 200 4964 "https://www.bates.biz/category/posts/category.asp" "Mozilla/5.0 (Windows NT 6.2) AppleWebKit/5330 (KHTML, like Gecko) Chrome/14.0.813.0 Safari/5330"
252.36.88.27 - - [11/Nov/2017:15:45:44 +0300] "GET /search/tag/list HTTP/1.0" 200 5043 "http://www.martinez.info/search/" "Mozilla/5.0 (X11; Linux i686) AppleWebKit/5350 (KHTML, like Gecko) Chrome/13.0.802.0 Safari/5350"
224.101.176.44 - - [11/Nov/2017:15:48:55 +0300] "POST /list HTTP/1.0" 200 4984 "http://www.morales-turner.com/blog/explore/main/about/" "Opera/8.30.(X11; Linux x86_64; my-MM) Presto/2.9.161 Version/12.00"
159.124.2.244 - - [11/Nov/2017:15:52:58 +0300] "GET /apps/cart.jsp?appID=2110 HTTP/1.0" 200 4980 "http://carson.net/blog/privacy/" "Mozilla/5.0 (Windows NT 5.2; hu-HU; rv:1.9.0.20) Gecko/2012-02-03 15:02:16 Firefox/3.6.15"
24.48.147.187 - - [11/Nov/2017:15:54:09 +0300] "POST /explore HTTP/1.0" 200 5009 "https://www.lam.com/app/tags/home/" "Mozilla/5.0 (Macintosh; PPC Mac OS X 10_7_1) AppleWebKit/5321 (KHTML, like Gecko) Chrome/13.0.891.0 Safari/5321"
93.38.235.46 - - [11/Nov/2017:15:56:20 +0300] "POST /list HTTP/1.0" 200 5026 "https://www.jones-clarke.com/index/" "Mozilla/5.0 (Macintosh; U; Intel Mac OS X 10_7_1; rv:1.9.5.20) Gecko/2016-05-20 21:11:52 Firefox/3.8"
207.203.64.100 - - [11/Nov/2017:15:57:07 +0300] "GET /wp-content HTTP/1.0" 200 4999 "https://lee.biz/faq/" "Mozilla/5.0 (Macintosh; U; PPC Mac OS X 10_5_2) AppleWebKit/5342 (KHTML, like Gecko) Chrome/15.0.868.0 Safari/5342"
134.160.26.242 - - [11/Nov/2017:16:00:31 +0300] "POST /wp-admin HTTP/1.0" 200 4993 "https://www.shah.com/login.jsp" "Mozilla/5.0 (Macintosh; PPC Mac OS X 10_8_8; rv:1.9.5.20) Gecko/2012-04-18 17:41:03 Firefox/3.6.11"
228.119.128.168 - - [11/Nov/2017:16:04:05 +0300] "POST /wp-admin HTTP/1.0" 200 4974 "https://brown.net/faq/" "Mozilla/5.0 (Windows; U; Windows NT 5.0) AppleWebKit/533.34.4 (KHTML, like Gecko) Version/4.1 Safari/533.34.4"
203.92.88.137 - - [11/Nov/2017:16:07:32 +0300] "PUT /posts/posts/explore HTTP/1.0" 500 4944 "http://riley.org/blog/posts/faq/" "Mozilla/5.0 (Macintosh; Intel Mac OS X 10_7_0) AppleWebKit/5332 (KHTML, like Gecko) Chrome/15.0.828.0 Safari/5332"
161.166.91.153 - - [11/Nov/2017:16:12:11 +0300] "PUT /app/main/posts HTTP/1.0" 200 4945 "https://holland.org/" "Mozilla/5.0 (Macintosh; U; Intel Mac OS X 10_6_9; rv:1.9.6.20) Gecko/2013-07-03 05:10:22 Firefox/3.8"
234.28.121.92 - - [11/Nov/2017:16:15:21 +0300] "GET /wp-admin HTTP/1.0" 200 4975 "http://www.woods.biz/categories/login.html" "Opera/8.99.(Windows NT 5.2; fa-IR) Presto/2.9.168 Version/10.00"
40.224.246.176 - - [11/Nov/2017:16:19:26 +0300] "GET /wp-admin HTTP/1.0" 200 4931 "https://torres.com/explore/tags/list/main.jsp" "Mozilla/5.0 (Macintosh; U; PPC Mac OS X 10_7_7 rv:2.0; bo-IN) AppleWebKit/533.49.7 (KHTML, like Gecko) Version/4.0 Safari/533.49.7"
202.222.133.46 - - [11/Nov/2017:16:21:57 +0300] "PUT /wp-content HTTP/1.0" 200 4977 "https://moore.info/explore/app/faq/" "Mozilla/5.0 (X11; Linux i686; rv:1.9.6.20) Gecko/2014-08-11 07:18:36 Firefox/3.6.16"
39.230.27.10 - - [11/Nov/2017:16:26:00 +0300] "GET /wp-admin HTTP/1.0" 200 4967 "https://hill.com/app/homepage/" "Mozilla/5.0 (Macintosh; U; PPC Mac OS X 10_7_1) AppleWebKit/5310 (KHTML, like Gecko) Chrome/15.0.814.0 Safari/5310"
98.70.235.82 - - [11/Nov/2017:16:27:25 +0300] "PUT /posts/posts/explore HTTP/1.0" 404 4997 "http://www.norton.com/posts/explore/main/privacy.jsp" "Opera/8.79.(Windows 98; nb-NO) Presto/2.9.165 Version/10.00"
250.208.223.37 - - [11/Nov/2017:16:28:39 +0300] "GET /explore HTTP/1.0" 200 4906 "https://bowman-cochran.com/search/tag/search/author/" "Mozilla/5.0 (Windows; U; Windows NT 6.0) AppleWebKit/534.11.6 (KHTML, like Gecko) Version/5.1 Safari/534.11.6"
166.44.43.111 - - [11/Nov/2017:16:30:50 +0300] "POST /posts/posts/explore HTTP/1.0" 200 4963 "https://www.robles.com/author/" "Mozilla/5.0 (X11; Linux x86_64; rv:1.9.7.20) Gecko/2011-06-29 08:51:00 Firefox/3.6.16"
236.60.122.123 - - [11/Nov/2017:16:31:29 +0300] "PUT /search/tag/list HTTP/1.0" 200 5052 "http://nguyen-rosales.com/app/blog/faq.html" "Mozilla/5.0 (Windows NT 6.1; id-ID; rv:1.9.2.20) Gecko/2013-04-25 15:49:26 Firefox/10.0"
